[{
  "id": 1,
  "zipcode": "05712070",
  "number": "150",
  "state": "SP",
  "city": "sao_paulo",
  "cityName": "São Paulo",
  "combinationRules": {
    "includes": [{ "technologies": [{ "id": "hfc" }]  }]
  }
},{
  "id": 2,
  "zipcode": "05712070",
  "number": "100",
  "state": "SP",
  "city": "sao_paulo",
  "cityName": "São Paulo",
  "combinationRules": {
    "includes": [{ "technologies": [{ "id": "gpon" }]  }]
  }
}]